…
mock_claims(100)[c(
  "date_srv",
  "charges",
  "payer"
)] |>
  days_between(date_srv) |>
  bin_aging(days_elapsed)
#> # A tibble: 100 × 5
#>    date_srv   charges payer       days_elapsed aging_bin
#>    <date>       <dbl> <fct>              <int> <fct>    
#>  1 2025-03-04    232. Highmark             380 121+     
#>  2 2025-03-03    295. Medicaid             381 121+     
#>  3 2025-03-02    202. Centene              382 121+     
#>  4 2025-03-01    237. GuideWell            383 121+     
#>  5 2025-02-28    305. HCSC                 384 121+     
#>  6 2025-02-26    309. Wellcare             386 121+     
#>  7 2025-02-25     20. Bright               387 121+     
#>  8 2025-02-24     82. Omaha                388 121+     
#>  9 2025-02-23    166. Athene               389 121+     
#> 10 2025-02-23    173. Mass Mutual          389 121+     
#> # ℹ 90 more rows
…
