Aging of Accounts • forager
…
binned <- bin_aging(
  df = load_ex("aging_ex"),
  date = dos) |>
  select(
    dos:ins_class,
    dar:aging_bin)

binned

#> # A tibble: 2,618 × 6
#>    dos        charges ins_name   ins_class   dar aging_bin 
#>    <date>       <dbl> <chr>      <chr>     <int> <fct>     
#>  1 2023-12-27    390. Medicare   Primary     146 (120, 150]
#>  2 2023-12-27    173. Patient    Patient     146 (120, 150]
#>  3 2023-12-27    246. Blue Cross Primary     146 (120, 150]
#>  4 2023-12-27    507. AETNA      Primary     146 (120, 150]
#>  5 2023-12-27    483. Blue Cross Primary     146 (120, 150]
#>  6 2023-12-27    399. AETNA      Secondary   146 (120, 150]
#>  7 2023-12-27    850. Patient    Patient     146 (120, 150]
#>  8 2023-12-27    351. Medicare   Primary     146 (120, 150]
#>  9 2023-12-27    523. Blue Cross Secondary   146 (120, 150]
#> 10 2023-12-27    894. Patient    Patient     146 (120, 150]
#> # ℹ 2,608 more rows
…
