…
### The Lifecycle of a Claim

- **Provider Lag**: Date of Service - Date of Release
- **Billing Lag**: Date of Release - Date of Submission
- **Acceptance Lag**: Date of Submission - Date of Acceptance
- **Payment Lag**: Date of Acceptance - Date of Adjudication
- **Days in AR**: Date of Release - Date of Adjudication

  

``` r
(x <- mock_claims(15000))
```

    #> # A tibble: 15,000 × 10
    #>    id    payer    charges date_srv   date_rel   date_sub   date_acc   date_adj  
    #>    <chr> <fct>      <dbl> <date>     <date>     <date>     <date>     <date>    
    #>  1 04173 Humana      116. 2025-03-04 2025-03-13 2025-03-14 2025-03-23 2025-04-07
    #>  2 12227 Oscar       182. 2025-03-04 2025-03-13 2025-03-13 2025-03-21 2025-04-03
    #>  3 12277 UHC         102. 2025-03-04 2025-03-11 2025-03-13 2025-03-19 2025-04-01
    #>  4 13363 Omaha        31. 2025-03-04 2025-03-13 2025-03-15 2025-03-20 2025-04-11
    #>  5 00067 Mass Mu…     90. 2025-03-04 2025-03-12 2025-03-18 2025-03-25 2025-04-09
    #>  6 14354 Athene       97. 2025-03-04 2025-03-13 2025-03-14 2025-03-23 2025-04-06
    #>  7 06940 Aetna       168. 2025-03-04 2025-03-14 2025-03-19 2025-03-27 2025-04-21
    #>  8 06460 BCBS         16. 2025-03-04 2025-03-13 2025-03-22 2025-03-24 2025-04-11
    #>  9 08288 Equitab…    182. 2025-03-04 2025-03-12 2025-03-14 2025-03-22 2025-04-06
    #> 10 13155 Humana       87. 2025-03-04 2025-03-12 2025-03-13 2025-03-18 2025-03-30
    #> # ℹ 14,990 more rows
    #> # ℹ 2 more variables: date_rec <date>, balance <dbl>

  

``` r
(x <- prep_claims(x))
```

    #> # A tibble: 15,000 × 13
    #>    id    payer    charges balance date_srv   aging_bin   dar days_rel days_sub
    #>    <chr> <fct>      <dbl>   <dbl> <date>     <fct>     <int>    <int>    <int>
    #>  1 00001 NY Life      93.     93. 2025-01-07 31-60        44       10        4
    #>  2 00002 Wellcare    192.    192. 2025-02-06 31-60        31        9        0
    #>  3 00003 Allianz      23.     23. 2025-02-02 31-60        33        8        4
    #>  4 00004 Oscar        40.      0  2025-01-27 31-60        37        9        7
    #>  5 00005 Omaha        51.      0  2025-02-14 31-60        32       10        0
    #>  6 00006 Cigna        99.     99. 2025-02-23 31-60        53       10        9
    #>  7 00007 Allianz     208.    208. 2025-01-04 31-60        34       10        0
    #>  8 00008 Cigna        68.      0  2025-01-18 0-30         25       10        1
    #>  9 00009 Medicare    135.    135. 2025-02-09 31-60        37        9        3
    #> 10 00010 Highmark     99.      0  2025-01-21 31-60        34        8        4
    #> # ℹ 14,990 more rows
    #> # ℹ 4 more variables: days_acc <int>, days_adj <int>, days_rec <int>,
    #> #   dates <list>
…
  

``` r
x |> 
  dplyr::group_by(
    year = clock::get_year(date_srv),
    quarter = lubridate::quarter(date_srv),
    payer) |>
  summarise_claims()
```

    #> # A tibble: 48 × 12
    #>     year quarter payer  n_claims gross_ch…¹ ending_ar mean_rel mean_sub mean_acc
    #>    <int>   <int> <fct>     <int>      <dbl>     <dbl>    <dbl>    <dbl>    <dbl>
    #>  1  2024       4 Aetna        95     13318.         0      8.5      3.0      7.8
    #>  2  2024       4 Allia…       96     13480.         0      8.5      2.8      7.8
    #>  3  2024       4 Ameri…      111     13436.         0      8.5      3.3      7.8
    #>  4  2024       4 Athene       95     12110.         0      8.5      2.7      7.5
    #>  5  2024       4 BCBS        101     14017.         0      8.4      3        7.7
    #>  6  2024       4 Bright      109     14619.         0      8.6      3.0      7.7
    #>  7  2024       4 Cente…       96     14606.         0      8.5      3.1      7.4
    #>  8  2024       4 Cigna        93     13443.         0      8.5      3.0      7.7
    #>  9  2024       4 Eleva…       91     12430.         0      8.6      2.6      8.2
    #> 10  2024       4 Equit…      115     16889.         0      8.3      3.2      7.8
    #> # ℹ 38 more rows
    #> # ℹ abbreviated name: ¹​gross_charges
    #> # ℹ 3 more variables: mean_adj <dbl>, mean_rec <dbl>, mean_dar <dbl>
…
