PARBx & BPI • forager
…
Humana
15
2
7.9%
9.9%
11.8%

Mock PARBx

mock_parbx()

#> # A tibble: 1,440 × 5
#>    date       month    payer    aging_bin aging_prop
#>    <date>     <ord>    <chr>    <ord>          <dbl>
#>  1 2024-01-01 January  Medicare 0-30           0.19 
#>  2 2024-01-01 January  Medicare 31-60          0.10 
#>  3 2024-01-01 January  Medicare 61-90          0.23 
#>  4 2024-01-01 January  Medicare 91-120         0.27 
#>  5 2024-01-01 January  Medicare 121+           0.21 
#>  6 2024-02-01 February Medicare 0-30           0.092
#>  7 2024-02-01 February Medicare 31-60          0.27 
#>  8 2024-02-01 February Medicare 61-90          0.048
#>  9 2024-02-01 February Medicare 91-120         0.28 
#> 10 2024-02-01 February Medicare 121+           0.31 
#> # ℹ 1,430 more rows
…
