…
[TABLE]

## Mock PARBx

``` r
mock_parbx()
```

    #> # A tibble: 60 × 5
    #>    date       month    payer       bin    aging
    #>    <date>     <ord>    <fct>       <fct>  <dbl>
    #>  1 2025-01-01 January  Molina      0-30   0.19 
    #>  2 2025-01-01 January  Humana      31-60  0.29 
    #>  3 2025-01-01 January  Lincoln     61-90  0.36 
    #>  4 2025-01-01 January  Omaha       91-120 0.12 
    #>  5 2025-01-01 January  Highmark    121+   0.037
    #>  6 2025-02-01 February Mass Mutual 0-30   0.21 
    #>  7 2025-02-01 February Oscar       31-60  0.018
    #>  8 2025-02-01 February Athene      61-90  0.16 
    #>  9 2025-02-01 February Highmark    91-120 0.35 
    #> 10 2025-02-01 February Lincoln     121+   0.26 
    #> # ℹ 50 more rows
…
