…
``` r
# For each ID, compute the "splits" for each interval.
# This splits on all the endpoints and returns a list column
df33 <- df3 |>
  group_by(ID) |>
  mutate(splits = iv_identify_splits(interval))

print(df33, n = 3)
```

    #> # A tibble: 10 × 8
    #> # Groups:   ID [3]
    #>      ID date1      date2      char   days date_mid                   interval
    #>   <int> <date>     <date>     <chr> <dbl> <date>                   <iv<date>>
    #> 1    15 2003-04-05 2003-05-06 E        15 2003-04-21 [2003-04-05, 2003-05-06)
    #> 2    15 2003-04-20 2003-06-20 R        30 2003-05-21 [2003-04-20, 2003-06-20)
    #> 3    16 2001-01-02 2002-03-04 M       213 2001-08-03 [2001-01-02, 2002-03-04)
    #> # ℹ 7 more rows
    #> # ℹ 1 more variable: splits <list<iv<date>>>
…
``` r
# From there we can unchop() the splits column so we can group on it
df33 <- df33 |> unchop(splits)

# Note how rows 2 and 3 have the same `splits` value, so `E` and `R` will
# go together
df33
```

    #> # A tibble: 30 × 8
    #> # Groups:   ID [3]
    #>       ID date1      date2      char   days date_mid                   interval
    #>    <int> <date>     <date>     <chr> <dbl> <date>                   <iv<date>>
    #>  1    15 2003-04-05 2003-05-06 E        15 2003-04-21 [2003-04-05, 2003-05-06)
    #>  2    15 2003-04-05 2003-05-06 E        15 2003-04-21 [2003-04-05, 2003-05-06)
    #>  3    15 2003-04-20 2003-06-20 R        30 2003-05-21 [2003-04-20, 2003-06-20)
    #>  4    15 2003-04-20 2003-06-20 R        30 2003-05-21 [2003-04-20, 2003-06-20)
    #>  5    16 2001-01-02 2002-03-04 M       213 2001-08-03 [2001-01-02, 2002-03-04)
    #>  6    17 2003-03-05 2007-02-22 I       725 2005-02-27 [2003-03-05, 2007-02-22)
    #>  7    17 2003-03-05 2007-02-22 I       725 2005-02-27 [2003-03-05, 2007-02-22)
    #>  8    17 2005-04-15 2014-05-19 C      1660 2009-11-01 [2005-04-15, 2014-05-19)
    #>  9    17 2005-04-15 2014-05-19 C      1660 2009-11-01 [2005-04-15, 2014-05-19)
    #> 10    17 2005-04-15 2014-05-19 C      1660 2009-11-01 [2005-04-15, 2014-05-19)
    #> # ℹ 20 more rows
    #> # ℹ 1 more variable: splits <iv<date>>
…
``` r
# We'll generate a sequence of months that will be part of the final result
bounds <- range(enrollments$active)
lower <- iv_start(bounds[[1]])
upper <- iv_end(bounds[[2]]) - 1L
months <- tibble(month = seq(lower, upper, by = 1))
months
```

    #> # A tibble: 27 × 1
    #>    month       
    #>    <ymd<month>>
    #>  1 2017-01     
    #>  2 2017-02     
    #>  3 2017-03     
    #>  4 2017-04     
    #>  5 2017-05     
    #>  6 2017-06     
    #>  7 2017-07     
    #>  8 2017-08     
    #>  9 2017-09     
    #> 10 2017-10     
    #> # ℹ 17 more rows

To actually compute the counts, use `iv_count_between()`, which counts
up all instances where `month[i]` is between any interval in
`enrollments$active`

``` r
months |> 
  mutate(count = iv_count_between(month, enrollments$active))
```

    #> # A tibble: 27 × 2
    #>    month        count
    #>    <ymd<month>> <int>
    #>  1 2017-01          3
    #>  2 2017-02          3
    #>  3 2017-03          1
    #>  4 2017-04          2
    #>  5 2017-05          2
    #>  6 2017-06          3
    #>  7 2017-07          3
    #>  8 2017-08          3
    #>  9 2017-09          3
    #> 10 2017-10          3
    #> # ℹ 17 more rows
…
