Patient Scheduling • forager
…
# For each ID, compute the "splits" for each interval.
# This splits on all the endpoints and returns a list column
df3 <- df3 |>
  group_by(ID) |>
  mutate(splits = iv_identify_splits(interval))
#> Error in `mutate()`:
#> ℹ In argument: `splits = iv_identify_splits(interval)`.
#> ℹ In group 1: `ID = 15`.
#> Caused by error in `iv_identify_splits()`:
#> ! could not find function "iv_identify_splits"

print(df3, n = 3)
#> # A tibble: 10 × 4
#>      ID date1      date2      char 
#>   <int> <date>     <date>     <chr>
#> 1    15 2003-04-05 2003-05-06 E    
#> 2    15 2003-04-20 2003-06-20 R    
#> 3    16 2001-01-02 2002-03-04 M    
#> # ℹ 7 more rows
…
